alabaster==0.7.10
Babel==2.5.1
certifi==2017.11.5
chardet==3.0.4
docutils==0.14
idna==2.6
imagesize==0.7.1
Jinja2==2.10
MarkupSafe==1.0
#pkg-resources==0.0.00
Pygments==2.2.0
pytz==2017.3
requests==2.18.4
six==1.11.0
snowballstemmer==1.2.1
Sphinx==1.6.5
sphinx-rtd-theme==0.2.4
sphinxcontrib-websupport==1.0.1
typing==3.6.2
urllib3==1.22
